<svg width="575" height="429" viewBox="0 0 575 429" fill="none" xmlns="http://www.w3.org/2000/svg">
<g opacity="0.5">
<line x1="390.177" y1="53" x2="390.177" y2="429" stroke="url(#paint0_linear_10_548)"/>
<line x1="514" y1="308.21" x2="138" y2="308.21" stroke="url(#paint1_linear_10_548)"/>
<line x1="346.715" y1="53" x2="346.715" y2="429" stroke="url(#paint2_linear_10_548)"/>
<line x1="514" y1="264.747" x2="138" y2="264.747" stroke="url(#paint3_linear_10_548)"/>
<line x1="303.253" y1="53" x2="303.253" y2="429" stroke="url(#paint4_linear_10_548)"/>
<line x1="514" y1="221.285" x2="138" y2="221.285" stroke="url(#paint5_linear_10_548)"/>
<line x1="259.79" y1="53" x2="259.79" y2="429" stroke="url(#paint6_linear_10_548)"/>
<line x1="514" y1="177.823" x2="138" y2="177.822" stroke="url(#paint7_linear_10_548)"/>
<line x1="216.328" y1="53" x2="216.328" y2="429" stroke="url(#paint8_linear_10_548)"/>
<line x1="514" y1="134.36" x2="138" y2="134.36" stroke="url(#paint9_linear_10_548)"/>
<line x1="173" y1="-4.37114e-08" x2="173" y2="429" stroke="url(#paint10_linear_10_548)" stroke-width="2"/>
<line x1="514" y1="90.8977" x2="138" y2="90.8977" stroke="url(#paint11_linear_10_548)"/>
<line x1="433.64" y1="53" x2="433.64" y2="429" stroke="url(#paint12_linear_10_548)"/>
<line x1="514" y1="351.672" x2="138" y2="351.672" stroke="url(#paint13_linear_10_548)"/>
<line x1="477.102" y1="53" x2="477.102" y2="429" stroke="url(#paint14_linear_10_548)"/>
<line x1="575" y1="396" x2="138" y2="396" stroke="url(#paint15_linear_10_548)" stroke-width="2"/>
</g>
<path d="M196.484 46.0735C192.001 46.0774 187.542 46.7372 183.25 48.032C180.227 38.7225 174.334 30.6091 166.416 24.8548C158.498 19.1006 148.962 16.0008 139.174 16C115.525 16 94.677 30.7896 91.4005 52.7361C86.6049 47.6476 79.1369 45.1583 69.4358 45.1583C61.4305 45.1728 53.758 48.3631 48.1026 54.0288C42.4471 59.6946 39.2708 67.3728 39.2708 75.3781C39.2845 76.9481 39.4192 78.5147 39.6735 80.064C35.5324 78.6691 31.1371 78.1934 26.7936 78.6699C22.45 79.1465 18.2624 80.5639 14.5223 82.8235C10.7822 85.0831 7.57946 88.1305 5.13695 91.7538C2.69443 95.3771 1.07083 99.4891 0.379154 103.804C-0.312525 108.118 -0.0556685 112.532 1.13185 116.737C2.31936 120.942 4.40901 124.838 7.25535 128.153C10.1017 131.469 13.6363 134.124 17.6133 135.935C21.5902 137.745 25.914 138.667 30.2835 138.637H196.484C208.771 138.637 220.554 133.756 229.242 125.068C237.93 116.38 242.811 104.596 242.811 92.3093C242.811 80.0225 237.93 68.239 229.242 59.5509C220.554 50.8628 208.771 45.9819 196.484 45.9819V46.0735Z" fill="url(#paint16_linear_10_548)"/>
<path d="M192.073 51.8022C187.828 51.8258 183.608 52.4419 179.534 53.6326C173.842 36.9394 157.35 23.1748 137.874 23.1748C127.274 23.3311 117.076 27.261 109.112 34.2589C101.148 41.2568 95.9391 50.8645 94.4207 61.3569C89.1858 55.0787 80.2351 51.5094 71.1197 51.5094C57.4649 51.5094 43.8651 63.7364 43.8651 78.6542C43.876 80.7094 43.9982 82.7624 44.2311 84.8043C41.3646 83.903 38.3769 83.4462 35.372 83.4498C19.6489 83.4498 7.7696 92.3456 7.7696 107.245C7.7696 122.144 19.1913 132.871 34.8961 132.871H192.073C216.27 132.871 235.892 114.347 235.892 91.5036C235.892 68.6602 216.197 51.8022 192.073 51.8022Z" fill="#003399"/>
<path d="M190.443 54.6762C186.305 54.6729 182.185 55.2333 178.198 56.3419C172.615 40.3625 156.526 25.884 137.49 25.884C115.525 25.884 98.3561 46.4577 95.7935 66.1528C92.9096 62.8234 89.3732 60.1211 85.4031 58.2132C81.433 56.3053 77.1136 55.2323 72.7122 55.0606C57.2819 55.0606 46.7937 67.8734 46.7937 82.2237C46.8045 84.1998 46.9267 86.1736 47.1598 88.1359C44.3472 87.2794 41.4238 86.8415 38.4837 86.8363C23.145 86.8363 10.4237 92.5289 10.4237 106.806C10.4237 121.083 21.5342 131.425 36.818 131.425H190.37C214.001 131.425 233.165 113.578 233.165 91.5771C233.165 69.5757 214.074 54.6762 190.443 54.6762Z" fill="url(#paint17_linear_10_548)"/>
<path d="M190.443 54.6762C186.305 54.6729 182.185 55.2333 178.198 56.3419C172.615 40.3625 156.526 25.884 137.49 25.884C115.525 25.884 98.3561 46.4577 95.7935 66.1528C92.9096 62.8234 89.3732 60.1211 85.4031 58.2132C81.433 56.3053 77.1136 55.2323 72.7122 55.0606C57.2819 55.0606 46.7937 67.8734 46.7937 82.2237C46.8045 84.1998 46.9267 86.1736 47.1598 88.1359C44.3472 87.2794 41.4238 86.8415 38.4837 86.8363C23.145 86.8363 10.4237 92.5289 10.4237 106.806C10.4237 121.083 21.5342 131.425 36.818 131.425H190.37C214.001 131.425 233.165 113.578 233.165 91.5771C233.165 69.5757 214.074 54.6762 190.443 54.6762Z" fill="url(#paint18_linear_10_548)"/>
<path d="M196.484 46.0735C192.001 46.0774 187.542 46.7372 183.25 48.032C180.227 38.7225 174.334 30.6091 166.416 24.8548C158.498 19.1006 148.962 16.0008 139.174 16C115.525 16 94.677 30.7896 91.4005 52.7361C86.6049 47.6476 79.1369 45.1583 69.4358 45.1583C61.4305 45.1728 53.758 48.3631 48.1026 54.0288C42.4471 59.6946 39.2708 67.3728 39.2708 75.3781C39.2845 76.9481 39.4192 78.5147 39.6735 80.064C35.5324 78.6691 31.1371 78.1934 26.7936 78.6699C22.45 79.1465 18.2624 80.5639 14.5223 82.8235C10.7822 85.0831 7.57946 88.1305 5.13695 91.7538C2.69443 95.3771 1.07083 99.4891 0.379154 103.804C-0.312525 108.118 -0.0556685 112.532 1.13185 116.737C2.31936 120.942 4.40901 124.838 7.25535 128.153C10.1017 131.469 13.6363 134.124 17.6133 135.935C21.5902 137.745 25.914 138.667 30.2835 138.637H196.484C208.771 138.637 220.554 133.756 229.242 125.068C237.93 116.38 242.811 104.596 242.811 92.3093C242.811 80.0225 237.93 68.239 229.242 59.5509C220.554 50.8628 208.771 45.9819 196.484 45.9819V46.0735ZM192.072 132.779H34.9876C19.2828 132.779 7.86113 122.017 7.86113 107.154C7.86113 92.291 19.7404 83.3587 35.4635 83.3587C38.4684 83.355 41.4562 83.8118 44.3227 84.7132C44.0897 82.6712 43.9675 80.6182 43.9566 78.563C43.9566 63.6453 57.5565 51.4182 71.2112 51.4182C80.3632 51.4182 89.2773 55.079 94.5122 61.2658C96.0478 50.8053 101.252 41.2313 109.195 34.2538C117.138 27.2763 127.303 23.3496 137.874 23.1752C157.35 23.1752 173.842 36.9398 179.534 53.5415C183.608 52.3508 187.828 51.7347 192.072 51.7111C216.27 51.7111 235.892 68.4592 235.892 91.3209C235.892 114.183 216.197 132.779 192.072 132.779Z" fill="#97B2DB"/>
<path d="M202.89 128.076L200.273 109.9L184.916 98.5513L151.328 103.512H151.108L135.843 124.763L127.588 125.495L127.386 126.739L136.355 125.806L151.676 104.482L184.623 99.6129L199.266 110.467L201.81 128.204L202.89 128.076Z" fill="#0066FF"/>
<path d="M209.644 125.641L205.984 108.124L188.137 94.9268L150.614 98.5876H150.376L133.829 121.12L123.67 121.705L123.817 122.712L134.305 122.163L151.017 99.5394L187.936 96.0433L205.215 108.71L208.656 125.659C208.985 125.637 209.315 125.631 209.644 125.641Z" fill="#0066FF"/>
<path d="M184.11 128.46L173.988 120.424L156.709 122.383L156.38 122.804C156.868 122.906 157.351 123.035 157.826 123.188L173.714 121.358L182.737 128.533C183.193 128.481 183.652 128.457 184.11 128.46Z" fill="#0066FF"/>
<path d="M189.62 125.97L189.894 128.386C190.205 128.386 190.517 128.386 190.828 128.386L190.572 125.458L176.825 115.628L156.691 117.916L145.708 129.576L136.117 125.494C136.52 125.494 134.067 125.659 134.47 125.696L145.745 130.857L157.13 118.795L176.514 116.672L189.62 125.97Z" fill="#0066FF"/>
<path d="M193.043 120.333L178.399 110.778L156.215 113.359L147.063 123.06L139.302 121.23C139.558 121.23 138.387 122.346 138.643 122.346C138.899 122.346 146.898 124.396 147.081 124.396L156.691 114.238L178.235 111.785L192.713 121.23C192.786 120.973 192.914 120.681 193.043 120.333Z" fill="#0066FF"/>
<path d="M213.763 67.0129L214.001 66.8848C214.11 66.7671 214.233 66.6627 214.367 66.5736C214.417 66.5142 214.472 66.4591 214.531 66.4089L197.124 62.7481L192.841 56.1221C192.439 56.1953 192.036 56.2502 191.633 56.2868L196.447 63.5901L213.287 67.2509L213.763 67.0129Z" fill="#0066FF"/>
<path d="M207.045 70.4726C206.752 70.5641 207.521 70.0699 207.045 70.4726L207.301 70.2712L192.091 67.0131L185.08 57.2571L183.909 57.5133L191.487 67.9832L205.8 71.0583C206.258 70.9119 206.679 70.6556 207.045 70.4726Z" fill="#0066FF"/>
<path d="M193.226 73.7858C194.123 73.6576 195.056 73.5112 195.935 73.3465L188.467 71.754L178.491 59.106C178.143 59.2701 177.782 59.4048 177.411 59.5086L187.844 72.7424L192.988 73.8407C193.064 73.8118 193.144 73.7934 193.226 73.7858Z" fill="#0066FF"/>
<path d="M217.186 85.0242C217.186 85.0242 217.186 83.688 216.691 83.7246L211.713 93.8101L199.907 97.8736V98.1665L200.492 98.5325L200.84 98.6973L212.536 94.707L217.259 85.0791L217.186 85.0242Z" fill="#0066FF"/>
<path d="M167.875 76.4035L167.454 75.47L157.386 82.4255L155.391 93.4079L156.508 92.9503L158.338 82.938L167.875 76.4035Z" fill="#0066FF"/>
<path d="M161.908 84.3655L170.95 78.1055C170.645 77.9147 170.352 77.7069 170.071 77.4832L160.919 83.7614L159.217 93.1697H160.26L161.908 84.3655Z" fill="#0066FF"/>
<path d="M165.495 85.6466L174.409 79.4781L173.64 79.1121H173.256L164.562 85.1158L163.116 93.0048C163.463 93.0048 163.829 93.0048 164.177 92.895L165.495 85.6466Z" fill="#0066FF"/>
<path d="M220.261 86.4152L219.968 86.3054L212.939 98.9352L205.215 101.608C205.599 101.864 205.984 102.102 206.368 102.376L213.689 99.8321L221.011 86.6898L220.261 86.4152Z" fill="#0066FF"/>
<path d="M224.672 87.6968L214.66 104.061L209.992 105.671C210.232 105.967 210.452 106.279 210.651 106.605L215.373 104.957L225.862 87.8615C225.459 87.8249 225.056 87.77 224.672 87.6968Z" fill="#0066FF"/>
<path d="M221.158 65.2561H220.791L189.675 75.5063L173.366 67.3794L170.858 59.8015C170.584 60.0029 170.272 60.1859 169.98 60.3689L172.542 68.0932L189.601 76.6595L221.853 66.0249H221.981L221.158 65.2561Z" fill="#0066FF"/>
<path d="M223.885 67.8735L222.841 69.9419L187.075 79.6979L167.93 70.1066L165.422 63.7002C165.157 63.928 164.875 64.136 164.58 64.3225L167.124 70.912L186.911 80.7778L223.336 70.912H223.555L224.617 68.7887L223.885 67.8735Z" fill="#0066FF"/>
<path d="M226.008 70.326L223.519 75.3413L184.824 84.1822L163.5 73.5109L160.754 67.251C160.48 67.4706 160.205 67.6903 159.912 67.8916L162.713 74.2248L184.678 85.2072L223.976 76.2382H224.214L226.722 71.2596L226.008 70.326Z" fill="#0066FF"/>
<path d="M232.158 82.7728L225.807 80.7044L223.976 75.4329C223.674 75.5977 223.362 75.7444 223.043 75.8722L224.873 81.2718V81.5098L232.286 83.9259L232.158 82.7728Z" fill="#0066FF"/>
<path d="M232.835 86.1409L221.048 82.2971L218.851 76.8059L217.845 76.9889L220.279 83.1208L232.982 87.2575L232.835 86.1409Z" fill="#0066FF"/>
<path d="M233.202 89.948L217.808 84.9327L214.513 77.7576L213.488 77.9589L217.149 85.7564L233.238 91.0463L233.202 89.948Z" fill="#0066FF"/>
<path d="M230.438 105.817L224.8 104.097L211.456 109.698C211.456 109.808 211.456 109.918 211.456 110.046C211.475 110.247 211.475 110.449 211.456 110.65L224.745 105.159L229.943 106.733L230.438 105.817Z" fill="#0066FF"/>
<path d="M228.15 110.449L224.489 109.167L212.61 114.164L212.829 115.061L224.525 110.174L227.619 111.254L228.15 110.449Z" fill="#0066FF"/>
<path d="M224.892 115.226L223.208 114.549L213.488 118.612V119.015C213.497 119.051 213.497 119.089 213.488 119.125L213.708 119.509L223.153 115.556L224.196 115.977L224.892 115.226Z" fill="#0066FF"/>
<path d="M215.557 123.847L211.017 105.543L191.267 90.8997L150.998 93.0046H150.76L133.829 116.104L122.847 116.269L123.012 117.294L133.994 117.111H134.25L151.273 94.0479L190.919 91.9613L210.084 106.11L214.568 124.268H214.989L215.557 123.847Z" fill="#0066FF"/>
<path style="mix-blend-mode:screen" opacity="0.55" d="M137.051 77.2089C147.539 60.1388 157.125 42.5306 165.77 24.4568C161.333 21.3209 156.375 18.9969 151.126 17.5928C146.056 26.9827 140.4 36.1347 135.348 45.6528C125.666 63.8653 115.525 81.8947 104.872 99.5031C97.0199 112.627 89.0393 125.678 81.0771 138.729H101.34C111.48 117.331 124.879 97.4165 137.051 77.2089Z" fill="url(#paint19_linear_10_548)"/>
<path style="mix-blend-mode:screen" opacity="0.55" d="M196.795 104.024C203.128 92.7668 210.029 81.6013 215.557 69.9234C218.009 64.7068 220.242 59.4352 222.658 54.2369C217.247 50.5619 211.123 48.0673 204.684 46.9153C192.603 65.8782 179.443 84.1639 168.479 103.658C161.981 115.262 155.922 126.922 150.175 138.765H183.726C187.478 126.904 190.718 114.841 196.795 104.024Z" fill="url(#paint20_linear_10_548)"/>
<path d="M178.198 56.2687C172.615 40.3625 156.526 25.884 137.49 25.884C115.525 25.884 98.3561 46.4577 95.7935 66.1528C92.9096 62.8234 89.3732 60.1211 85.4031 58.2132C81.433 56.3053 77.1136 55.2323 72.7122 55.0606C57.2819 55.0606 46.7937 67.8734 46.7937 82.2237C46.8045 84.1998 46.9267 86.1736 47.1598 88.1359C44.3472 87.2794 41.4238 86.8415 38.4837 86.8363C23.145 86.8363 10.4237 92.5289 10.4237 106.806C10.4237 121.083 21.5342 131.425 36.818 131.425H114.958L178.271 56.2687H178.198Z" fill="#D6E4EE"/>
<g style="mix-blend-mode:multiply" opacity="0.55">
<path d="M177.759 55.0787C164.946 56.6346 152.829 53.4497 140.071 54.4381C133.202 54.8869 126.505 56.7802 120.417 59.9943C114.33 63.2083 108.989 67.6707 104.744 73.0899C90.1193 91.6867 77.8922 113.011 57.465 125.97C54.185 128.045 50.7593 129.88 47.2147 131.461H114.939L178.271 56.2685C178.052 55.9207 177.85 55.4997 177.759 55.0787Z" fill="#97B2DB"/>
</g>
<path d="M178.198 56.269L114.958 131.315C115.388 127.598 115.534 123.853 115.397 120.113C114.751 110.152 112.951 100.3 110.034 90.7537C107.836 82.8802 107.519 74.6003 109.109 66.5817C110.698 58.5632 114.15 51.0304 119.186 44.591C137.929 21.4914 179.132 51.6381 178.198 56.269Z" fill="url(#paint21_linear_10_548)"/>
<path d="M114.958 131.425C114.958 131.425 118.985 119.381 112.176 94.2677C110.027 86.3925 109.735 78.126 111.323 70.1189C112.911 62.1117 116.336 54.5824 121.328 48.1234C137.325 28.3184 169.65 47.4278 178.216 56.3968C179.132 51.6377 137.929 21.491 119.186 44.5907C114.15 51.0301 110.698 58.5628 109.109 66.5813C107.519 74.5999 107.836 82.8798 110.034 90.7534C112.937 100.32 114.718 110.191 115.342 120.168C115.495 123.888 115.367 127.614 114.958 131.315V131.425Z" fill="#F0F0F0"/>
<path d="M158.71 227.95C160.233 231.221 162.693 233.966 165.777 235.839C168.861 237.712 172.431 238.628 176.036 238.471C179.64 238.314 183.118 237.092 186.028 234.959C188.938 232.826 191.15 229.878 192.384 226.487C193.618 223.097 193.819 219.416 192.961 215.912C192.104 212.407 190.226 209.236 187.565 206.798C184.904 204.361 181.581 202.768 178.015 202.22C174.448 201.672 170.8 202.194 167.53 203.72C165.36 204.731 163.41 206.161 161.792 207.926C160.174 209.691 158.92 211.758 158.101 214.008C157.282 216.258 156.914 218.647 157.018 221.039C157.123 223.432 157.698 225.78 158.71 227.95Z" fill="#FCD517"/>
<path d="M193.42 218.93C193.212 215.981 192.29 213.127 190.732 210.614C189.174 208.102 187.028 206.006 184.479 204.509C181.93 203.012 179.055 202.157 176.102 202.02C173.149 201.882 170.207 202.466 167.53 203.72C166.351 204.27 165.232 204.94 164.19 205.72C171.27 207.91 178.52 209.64 185 213.3C187.939 214.97 190.753 216.852 193.42 218.93Z" fill="#FFBC00"/>
<path opacity="0.54" d="M175.93 227.27C180.203 229.04 184.729 230.123 189.34 230.48H190.34C190.917 229.628 191.419 228.728 191.84 227.79C188.174 226.89 184.631 225.547 181.29 223.79C174.09 220.01 165.75 216.14 160.23 209.9C159.071 211.587 158.202 213.456 157.66 215.43C161.67 221.46 169.39 224.81 175.93 227.27Z" fill="#FFF364"/>
<path opacity="0.54" d="M157.34 216.76C156.699 220.06 156.982 223.473 158.16 226.623C159.337 229.772 161.363 232.534 164.012 234.604C166.661 236.674 169.831 237.97 173.172 238.351C176.512 238.731 179.893 238.181 182.94 236.76C185.556 235.549 187.844 233.728 189.61 231.45C188.606 231.433 187.603 231.349 186.61 231.2C182.275 230.513 178.04 229.297 174 227.58C168 225.1 161.28 222.06 157.34 216.76Z" fill="#FFF7AB"/>
<path opacity="0.54" d="M157 220.26C157.015 221.18 157.088 222.099 157.22 223.01C159.405 225.352 162.055 227.211 165 228.47C168.825 230.28 172.854 231.623 177 232.47C180.698 233.128 184.466 233.309 188.21 233.01C188.601 232.619 188.971 232.209 189.32 231.78C184.371 231.837 179.442 231.163 174.69 229.78C168.88 228.11 161.52 225.1 157 220.26Z" fill="#FFFCD2"/>
<path d="M157.63 225.01C157.898 226.041 158.259 227.045 158.71 228.01C159.722 230.18 161.151 232.13 162.916 233.748C164.681 235.366 166.748 236.62 168.998 237.439C171.248 238.258 173.637 238.626 176.03 238.521C178.422 238.417 180.77 237.842 182.94 236.83C184.384 236.154 185.729 235.286 186.94 234.25C183.01 234.472 179.068 234.119 175.24 233.2C169.48 231.7 162.28 229.4 157.63 225.01Z" fill="#FFEE52"/>
<path opacity="0.54" d="M157.08 218.72C159.315 221.119 161.956 223.106 164.88 224.59C168.578 226.675 172.536 228.262 176.65 229.31C178.467 229.741 180.307 230.075 182.16 230.31C179.373 229.614 176.645 228.701 174 227.58C168 225.1 161.28 222.06 157.34 216.76C157.22 217.41 157.14 218.06 157.08 218.72Z" fill="#FFFCD2"/>
<path opacity="0.53" d="M158.71 227.95C159.836 230.366 161.478 232.506 163.52 234.22C161.86 231.66 159.78 229.22 158.75 226.32C157.895 223.911 157.604 221.338 157.9 218.8C158.274 214.292 160.36 210.098 163.73 207.08C170.3 201.4 179.37 202.01 186.56 205.95C183.34 203.405 179.356 202.02 175.252 202.02C171.148 202.019 167.164 203.403 163.943 205.947C160.723 208.491 158.454 212.046 157.505 216.039C156.555 220.032 156.98 224.228 158.71 227.95Z" fill="#D18307"/>
<path opacity="0.53" d="M167.46 236.73C170.85 238.332 174.652 238.85 178.347 238.213C182.042 237.576 185.45 235.815 188.108 233.17C190.766 230.525 192.544 227.125 193.199 223.434C193.855 219.742 193.355 215.938 191.77 212.54C191.069 211.066 190.178 209.691 189.12 208.45C192.47 214.88 194.93 221.79 190.23 229.45C185.08 237.76 175.76 238.76 167.46 236.73Z" fill="#DB6B07"/>
<path d="M162.34 226.26C163.529 228.811 165.447 230.952 167.853 232.413C170.258 233.873 173.043 234.588 175.855 234.466C178.666 234.344 181.379 233.391 183.649 231.728C185.919 230.064 187.645 227.765 188.608 225.121C189.572 222.476 189.73 219.606 189.062 216.872C188.394 214.138 186.93 211.664 184.856 209.761C182.782 207.859 180.19 206.615 177.409 206.186C174.627 205.756 171.781 206.162 169.23 207.35C167.536 208.139 166.014 209.254 164.751 210.631C163.487 212.009 162.508 213.622 161.868 215.378C161.228 217.134 160.941 218.998 161.022 220.866C161.103 222.733 161.551 224.566 162.34 226.26Z" fill="url(#paint22_linear_10_548)"/>
<path d="M162.85 226.01C163.991 228.462 165.833 230.521 168.144 231.926C170.455 233.331 173.131 234.019 175.833 233.903C178.535 233.786 181.142 232.871 183.324 231.273C185.506 229.674 187.164 227.465 188.09 224.923C189.015 222.382 189.166 219.623 188.523 216.996C187.88 214.369 186.473 211.991 184.478 210.165C182.484 208.338 179.992 207.144 177.319 206.734C174.645 206.323 171.911 206.715 169.46 207.86C166.177 209.39 163.636 212.162 162.397 215.566C161.157 218.97 161.32 222.726 162.85 226.01Z" fill="url(#paint23_linear_10_548)"/>
<path opacity="0.42" d="M162.85 226.01C164.207 228.981 166.583 231.369 169.548 232.74C172.513 234.111 175.87 234.375 179.013 233.484C182.156 232.593 184.876 230.606 186.68 227.883C188.485 225.16 189.254 221.881 188.85 218.64C185.064 219.348 181.236 219.806 177.39 220.01C172.71 220.24 166.39 220.67 161.68 218.55C161.359 221.097 161.764 223.683 162.85 226.01Z" fill="url(#paint24_linear_10_548)"/>
<path opacity="0.58" d="M161.58 220.27C161.58 222.565 162.159 224.823 163.263 226.835C164.367 228.848 165.961 230.549 167.897 231.782C169.833 233.015 172.048 233.74 174.338 233.89C176.629 234.04 178.92 233.61 181 232.64C182.994 231.717 184.734 230.324 186.07 228.58C183.7 228.62 181.333 228.429 179 228.01C175.167 227.174 171.445 225.892 167.91 224.19C165.606 223.227 163.469 221.903 161.58 220.27Z" fill="#FFEE52"/>
<path d="M79.71 198.95C81.2335 202.221 83.6928 204.966 86.7768 206.839C89.8608 208.712 93.431 209.628 97.0358 209.471C100.64 209.315 104.118 208.092 107.028 205.959C109.938 203.826 112.15 200.878 113.384 197.487C114.618 194.097 114.819 190.417 113.961 186.912C113.104 183.407 111.226 180.236 108.565 177.798C105.904 175.361 102.581 173.768 99.0145 173.22C95.4482 172.672 91.7996 173.194 88.53 174.72C86.3596 175.731 84.4098 177.161 82.7919 178.926C81.174 180.691 79.9197 182.758 79.1006 185.008C78.2816 187.258 77.9138 189.647 78.0184 192.039C78.123 194.432 78.6978 196.78 79.71 198.95Z" fill="#FCD517"/>
<path d="M114.42 189.93C114.212 186.981 113.29 184.127 111.732 181.614C110.174 179.102 108.028 177.006 105.479 175.509C102.93 174.012 100.055 173.157 97.1021 173.02C94.1491 172.882 91.207 173.466 88.53 174.72C87.3509 175.27 86.2317 175.94 85.19 176.72C92.27 178.91 99.52 180.64 106 184.3C108.939 185.97 111.753 187.852 114.42 189.93Z" fill="#FFBC00"/>
<path opacity="0.54" d="M96.93 198.27C101.203 200.04 105.729 201.123 110.34 201.48H111.34C111.917 200.628 112.419 199.728 112.84 198.79C109.174 197.891 105.631 196.547 102.29 194.79C95.09 191.01 86.75 187.14 81.23 180.9C80.0709 182.587 79.2022 184.456 78.66 186.43C82.67 192.46 90.39 195.81 96.93 198.27Z" fill="#FFF364"/>
<path opacity="0.54" d="M78.34 187.76C77.6985 191.06 77.9822 194.473 79.1597 197.623C80.3371 200.772 82.3625 203.534 85.0119 205.604C87.6613 207.674 90.8315 208.97 94.1719 209.351C97.5124 209.731 100.893 209.181 103.94 207.76C106.556 206.549 108.844 204.728 110.61 202.45C109.606 202.433 108.603 202.349 107.61 202.2C103.275 201.513 99.0397 200.297 95 198.58C89 196.1 82.28 193.06 78.34 187.76Z" fill="#FFF7AB"/>
<path opacity="0.54" d="M78 191.26C78.0148 192.18 78.0883 193.099 78.22 194.01C80.4049 196.352 83.0548 198.211 86 199.47C89.8248 201.28 93.8538 202.623 98 203.47C101.698 204.128 105.466 204.309 109.21 204.01C109.601 203.619 109.971 203.209 110.32 202.78C105.371 202.837 100.442 202.163 95.69 200.78C89.88 199.11 82.52 196.1 78 191.26Z" fill="#FFFCD2"/>
<path d="M78.63 196.01C78.8977 197.041 79.2592 198.045 79.71 199.01C80.7215 201.18 82.1507 203.13 83.9159 204.748C85.6812 206.366 87.7478 207.62 89.9979 208.439C92.248 209.258 94.6373 209.626 97.0296 209.521C99.4218 209.417 101.77 208.842 103.94 207.83C105.384 207.154 106.729 206.286 107.94 205.25C104.01 205.472 100.068 205.119 96.24 204.2C90.48 202.7 83.28 200.4 78.63 196.01Z" fill="#FFEE52"/>
<path opacity="0.54" d="M78.08 189.72C80.3152 192.119 82.9556 194.106 85.88 195.59C89.5781 197.675 93.5358 199.262 97.65 200.31C99.4674 200.741 101.307 201.075 103.16 201.31C100.373 200.614 97.6447 199.701 95 198.58C89 196.1 82.28 193.06 78.34 187.76C78.22 188.41 78.14 189.06 78.08 189.72Z" fill="#FFFCD2"/>
<path opacity="0.53" d="M79.71 198.95C80.8362 201.366 82.478 203.506 84.52 205.22C82.86 202.66 80.78 200.22 79.75 197.32C78.8949 194.911 78.6042 192.338 78.9 189.8C79.2743 185.291 81.3604 181.098 84.73 178.08C91.3 172.4 100.37 173.01 107.56 176.95C104.34 174.405 100.356 173.02 96.2521 173.02C92.148 173.019 88.1637 174.403 84.9432 176.947C81.7227 179.491 79.4543 183.046 78.5046 187.039C77.555 191.032 77.9797 195.228 79.71 198.95Z" fill="#D18307"/>
<path opacity="0.53" d="M88.46 207.73C91.85 209.332 95.6516 209.85 99.3467 209.213C103.042 208.576 106.45 206.815 109.108 204.17C111.766 201.525 113.544 198.125 114.199 194.434C114.855 190.742 114.355 186.938 112.77 183.54C112.069 182.066 111.178 180.691 110.12 179.45C113.47 185.88 115.93 192.79 111.23 200.45C106.08 208.76 96.76 209.76 88.46 207.73Z" fill="#DB6B07"/>
<path d="M83.34 197.26C84.5288 199.811 86.4472 201.952 88.8528 203.412C91.2584 204.873 94.0431 205.588 96.8548 205.466C99.6664 205.344 102.379 204.391 104.649 202.727C106.919 201.064 108.645 198.765 109.608 196.121C110.572 193.476 110.73 190.606 110.062 187.872C109.394 185.138 107.93 182.663 105.856 180.761C103.782 178.859 101.19 177.615 98.4088 177.186C95.6274 176.756 92.7812 177.161 90.23 178.35C88.5358 179.139 87.0137 180.254 85.7505 181.631C84.4874 183.009 83.5079 184.622 82.8681 186.378C82.2283 188.134 81.9407 189.998 82.0216 191.866C82.1026 193.733 82.5506 195.566 83.34 197.26Z" fill="url(#paint25_linear_10_548)"/>
<path d="M83.85 197.01C84.9905 199.462 86.8329 201.521 89.144 202.926C91.4551 204.331 94.131 205.019 96.8331 204.903C99.5353 204.786 102.142 203.871 104.324 202.273C106.506 200.674 108.164 198.464 109.09 195.923C110.015 193.382 110.166 190.623 109.523 187.996C108.88 185.369 107.473 182.991 105.478 181.165C103.484 179.338 100.992 178.144 98.3188 177.733C95.6455 177.323 92.9105 177.715 90.46 178.86C87.1769 180.39 84.6361 183.162 83.3966 186.566C82.157 189.97 82.3201 193.726 83.85 197.01Z" fill="url(#paint26_linear_10_548)"/>
<path opacity="0.42" d="M83.85 197.01C85.2067 199.981 87.5827 202.369 90.5476 203.74C93.5126 205.111 96.8704 205.375 100.013 204.484C103.156 203.593 105.876 201.606 107.68 198.883C109.485 196.16 110.254 192.881 109.85 189.64C106.064 190.348 102.236 190.806 98.39 191.01C93.71 191.24 87.39 191.67 82.68 189.55C82.3586 192.097 82.7642 194.683 83.85 197.01Z" fill="url(#paint27_linear_10_548)"/>
<path opacity="0.58" d="M82.58 191.27C82.5801 193.565 83.1589 195.823 84.263 197.835C85.3671 199.848 86.9608 201.549 88.8967 202.782C90.8325 204.015 93.0481 204.74 95.3384 204.89C97.6287 205.04 99.9199 204.61 102 203.64C103.994 202.717 105.734 201.324 107.07 199.58C104.7 199.62 102.333 199.429 100 199.01C96.1667 198.174 92.4446 196.892 88.91 195.19C86.6057 194.227 84.4691 192.903 82.58 191.27Z" fill="#FFEE52"/>
<path d="M113.71 317.95C115.233 321.221 117.693 323.966 120.777 325.839C123.861 327.712 127.431 328.628 131.036 328.471C134.64 328.314 138.118 327.092 141.028 324.959C143.938 322.826 146.15 319.878 147.384 316.487C148.618 313.097 148.819 309.416 147.961 305.912C147.104 302.407 145.226 299.236 142.565 296.798C139.904 294.361 136.581 292.768 133.015 292.22C129.448 291.672 125.8 292.194 122.53 293.72C120.36 294.731 118.41 296.161 116.792 297.926C115.174 299.691 113.92 301.758 113.101 304.008C112.282 306.258 111.914 308.647 112.018 311.039C112.123 313.432 112.698 315.78 113.71 317.95Z" fill="#FCD517"/>
<path d="M148.42 308.93C148.212 305.981 147.29 303.127 145.732 300.614C144.174 298.102 142.028 296.006 139.479 294.509C136.93 293.012 134.055 292.157 131.102 292.02C128.149 291.882 125.207 292.466 122.53 293.72C121.351 294.27 120.232 294.94 119.19 295.72C126.27 297.91 133.52 299.64 140 303.3C142.939 304.97 145.753 306.852 148.42 308.93Z" fill="#FFBC00"/>
<path opacity="0.54" d="M130.93 317.27C135.203 319.04 139.729 320.123 144.34 320.48H145.34C145.917 319.628 146.419 318.728 146.84 317.79C143.174 316.89 139.631 315.547 136.29 313.79C129.09 310.01 120.75 306.14 115.23 299.9C114.071 301.587 113.202 303.456 112.66 305.43C116.67 311.46 124.39 314.81 130.93 317.27Z" fill="#FFF364"/>
<path opacity="0.54" d="M112.34 306.76C111.699 310.06 111.982 313.473 113.16 316.623C114.337 319.772 116.363 322.534 119.012 324.604C121.661 326.674 124.831 327.97 128.172 328.351C131.512 328.731 134.893 328.181 137.94 326.76C140.556 325.549 142.844 323.728 144.61 321.45C143.606 321.433 142.603 321.349 141.61 321.2C137.275 320.513 133.04 319.297 129 317.58C123 315.1 116.28 312.06 112.34 306.76Z" fill="#FFF7AB"/>
<path opacity="0.54" d="M112 310.26C112.015 311.18 112.088 312.099 112.22 313.01C114.405 315.352 117.055 317.211 120 318.47C123.825 320.28 127.854 321.623 132 322.47C135.698 323.128 139.466 323.309 143.21 323.01C143.601 322.619 143.971 322.209 144.32 321.78C139.371 321.837 134.442 321.163 129.69 319.78C123.88 318.11 116.52 315.1 112 310.26Z" fill="#FFFCD2"/>
<path d="M112.63 315.01C112.898 316.041 113.259 317.045 113.71 318.01C114.722 320.18 116.151 322.13 117.916 323.748C119.681 325.366 121.748 326.62 123.998 327.439C126.248 328.258 128.637 328.626 131.03 328.521C133.422 328.417 135.77 327.842 137.94 326.83C139.384 326.154 140.729 325.286 141.94 324.25C138.01 324.472 134.068 324.119 130.24 323.2C124.48 321.7 117.28 319.4 112.63 315.01Z" fill="#FFEE52"/>
<path opacity="0.54" d="M112.08 308.72C114.315 311.119 116.956 313.106 119.88 314.59C123.578 316.675 127.536 318.262 131.65 319.31C133.467 319.741 135.307 320.075 137.16 320.31C134.373 319.614 131.645 318.701 129 317.58C123 315.1 116.28 312.06 112.34 306.76C112.22 307.41 112.14 308.06 112.08 308.72Z" fill="#FFFCD2"/>
<path opacity="0.53" d="M113.71 317.95C114.836 320.366 116.478 322.506 118.52 324.22C116.86 321.66 114.78 319.22 113.75 316.32C112.895 313.911 112.604 311.338 112.9 308.8C113.274 304.292 115.36 300.098 118.73 297.08C125.3 291.4 134.37 292.01 141.56 295.95C138.34 293.405 134.356 292.02 130.252 292.02C126.148 292.019 122.164 293.403 118.943 295.947C115.723 298.491 113.454 302.046 112.505 306.039C111.555 310.032 111.98 314.228 113.71 317.95Z" fill="#D18307"/>
<path opacity="0.53" d="M122.46 326.73C125.85 328.332 129.652 328.85 133.347 328.213C137.042 327.576 140.45 325.815 143.108 323.17C145.766 320.525 147.544 317.125 148.199 313.434C148.855 309.742 148.355 305.938 146.77 302.54C146.069 301.066 145.178 299.691 144.12 298.45C147.47 304.88 149.93 311.79 145.23 319.45C140.08 327.76 130.76 328.76 122.46 326.73Z" fill="#DB6B07"/>
<path d="M117.34 316.26C118.529 318.811 120.447 320.952 122.853 322.413C125.258 323.873 128.043 324.588 130.855 324.466C133.666 324.344 136.379 323.391 138.649 321.728C140.919 320.064 142.645 317.765 143.608 315.121C144.572 312.476 144.73 309.606 144.062 306.872C143.394 304.138 141.93 301.664 139.856 299.761C137.782 297.859 135.19 296.615 132.409 296.186C129.627 295.756 126.781 296.162 124.23 297.35C122.536 298.139 121.014 299.254 119.751 300.631C118.487 302.009 117.508 303.622 116.868 305.378C116.228 307.134 115.941 308.998 116.022 310.866C116.103 312.733 116.551 314.566 117.34 316.26Z" fill="url(#paint28_linear_10_548)"/>
<path d="M117.85 316.01C118.991 318.462 120.833 320.521 123.144 321.926C125.455 323.331 128.131 324.019 130.833 323.903C133.535 323.786 136.142 322.871 138.324 321.273C140.506 319.674 142.164 317.465 143.09 314.923C144.015 312.382 144.166 309.623 143.523 306.996C142.88 304.369 141.473 301.991 139.478 300.165C137.484 298.338 134.992 297.144 132.319 296.734C129.645 296.323 126.911 296.715 124.46 297.86C121.177 299.39 118.636 302.162 117.397 305.566C116.157 308.97 116.32 312.726 117.85 316.01Z" fill="url(#paint29_linear_10_548)"/>
<path opacity="0.42" d="M117.85 316.01C119.207 318.981 121.583 321.369 124.548 322.74C127.513 324.111 130.87 324.375 134.013 323.484C137.156 322.593 139.876 320.606 141.68 317.883C143.485 315.16 144.254 311.881 143.85 308.64C140.064 309.348 136.236 309.806 132.39 310.01C127.71 310.24 121.39 310.67 116.68 308.55C116.359 311.097 116.764 313.683 117.85 316.01Z" fill="url(#paint30_linear_10_548)"/>
<path opacity="0.58" d="M116.58 310.27C116.58 312.565 117.159 314.823 118.263 316.835C119.367 318.848 120.961 320.549 122.897 321.782C124.833 323.015 127.048 323.74 129.338 323.89C131.629 324.04 133.92 323.61 136 322.64C137.994 321.717 139.734 320.324 141.07 318.58C138.7 318.62 136.333 318.429 134 318.01C130.167 317.174 126.445 315.892 122.91 314.19C120.606 313.227 118.469 311.903 116.58 310.27Z" fill="#FFEE52"/>
<defs>
<linearGradient id="paint0_linear_10_548" x1="388.677" y1="53" x2="389.677" y2="53" gradientUnits="userSpaceOnUse">
<stop stop-color="#D6E8EE" stop-opacity="0.3"/>
<stop offset="0.5" stop-color="#00CEE6" stop-opacity="0.4"/>
<stop offset="1" stop-color="#0066FF"/>
</linearGradient>
<linearGradient id="paint1_linear_10_548" x1="514" y1="306.71" x2="514" y2="307.71" gradientUnits="userSpaceOnUse">
<stop stop-color="#D6E8EE" stop-opacity="0.3"/>
<stop offset="0.5" stop-color="#00CEE6" stop-opacity="0.4"/>
<stop offset="1" stop-color="#0066FF"/>
</linearGradient>
<linearGradient id="paint2_linear_10_548" x1="345.215" y1="53" x2="346.215" y2="53" gradientUnits="userSpaceOnUse">
<stop stop-color="#D6E8EE" stop-opacity="0.3"/>
<stop offset="0.5" stop-color="#00CEE6" stop-opacity="0.4"/>
<stop offset="1" stop-color="#0066FF"/>
</linearGradient>
<linearGradient id="paint3_linear_10_548" x1="514" y1="263.247" x2="514" y2="264.247" gradientUnits="userSpaceOnUse">
<stop stop-color="#D6E8EE" stop-opacity="0.3"/>
<stop offset="0.5" stop-color="#00CEE6" stop-opacity="0.4"/>
<stop offset="1" stop-color="#0066FF"/>
</linearGradient>
<linearGradient id="paint4_linear_10_548" x1="301.753" y1="53" x2="302.753" y2="53" gradientUnits="userSpaceOnUse">
<stop stop-color="#D6E8EE" stop-opacity="0.3"/>
<stop offset="0.5" stop-color="#00CEE6" stop-opacity="0.4"/>
<stop offset="1" stop-color="#0066FF"/>
</linearGradient>
<linearGradient id="paint5_linear_10_548" x1="514" y1="219.785" x2="514" y2="220.785" gradientUnits="userSpaceOnUse">
<stop stop-color="#D6E8EE" stop-opacity="0.3"/>
<stop offset="0.5" stop-color="#00CEE6" stop-opacity="0.4"/>
<stop offset="1" stop-color="#0066FF"/>
</linearGradient>
<linearGradient id="paint6_linear_10_548" x1="258.29" y1="53" x2="259.29" y2="53" gradientUnits="userSpaceOnUse">
<stop stop-color="#D6E8EE" stop-opacity="0.3"/>
<stop offset="0.5" stop-color="#00CEE6" stop-opacity="0.4"/>
<stop offset="1" stop-color="#0066FF"/>
</linearGradient>
<linearGradient id="paint7_linear_10_548" x1="514" y1="176.323" x2="514" y2="177.323" gradientUnits="userSpaceOnUse">
<stop stop-color="#D6E8EE" stop-opacity="0.3"/>
<stop offset="0.5" stop-color="#00CEE6" stop-opacity="0.4"/>
<stop offset="1" stop-color="#0066FF"/>
</linearGradient>
<linearGradient id="paint8_linear_10_548" x1="214.828" y1="53" x2="215.828" y2="53" gradientUnits="userSpaceOnUse">
<stop stop-color="#D6E8EE" stop-opacity="0.3"/>
<stop offset="0.5" stop-color="#00CEE6" stop-opacity="0.4"/>
<stop offset="1" stop-color="#0066FF"/>
</linearGradient>
<linearGradient id="paint9_linear_10_548" x1="514" y1="132.86" x2="514" y2="133.86" gradientUnits="userSpaceOnUse">
<stop stop-color="#D6E8EE" stop-opacity="0.3"/>
<stop offset="0.5" stop-color="#00CEE6" stop-opacity="0.4"/>
<stop offset="1" stop-color="#0066FF"/>
</linearGradient>
<linearGradient id="paint10_linear_10_548" x1="171" y1="4.37212e-08" x2="172" y2="0" gradientUnits="userSpaceOnUse">
<stop stop-color="#D6E8EE" stop-opacity="0.3"/>
<stop offset="0.5" stop-color="#00CEE6" stop-opacity="0.4"/>
<stop offset="1" stop-color="#0066FF"/>
</linearGradient>
<linearGradient id="paint11_linear_10_548" x1="514" y1="89.3977" x2="514" y2="90.3977" gradientUnits="userSpaceOnUse">
<stop stop-color="#D6E8EE" stop-opacity="0.3"/>
<stop offset="0.5" stop-color="#00CEE6" stop-opacity="0.4"/>
<stop offset="1" stop-color="#0066FF"/>
</linearGradient>
<linearGradient id="paint12_linear_10_548" x1="432.14" y1="53" x2="433.14" y2="53" gradientUnits="userSpaceOnUse">
<stop stop-color="#D6E8EE" stop-opacity="0.3"/>
<stop offset="0.5" stop-color="#00CEE6" stop-opacity="0.4"/>
<stop offset="1" stop-color="#0066FF"/>
</linearGradient>
<linearGradient id="paint13_linear_10_548" x1="514" y1="350.172" x2="514" y2="351.172" gradientUnits="userSpaceOnUse">
<stop stop-color="#D6E8EE" stop-opacity="0.3"/>
<stop offset="0.5" stop-color="#00CEE6" stop-opacity="0.4"/>
<stop offset="1" stop-color="#0066FF"/>
</linearGradient>
<linearGradient id="paint14_linear_10_548" x1="475.602" y1="53" x2="476.602" y2="53" gradientUnits="userSpaceOnUse">
<stop stop-color="#D6E8EE" stop-opacity="0.3"/>
<stop offset="0.5" stop-color="#00CEE6" stop-opacity="0.4"/>
<stop offset="1" stop-color="#0066FF"/>
</linearGradient>
<linearGradient id="paint15_linear_10_548" x1="575" y1="394" x2="575" y2="395" gradientUnits="userSpaceOnUse">
<stop stop-color="#D6E8EE" stop-opacity="0.3"/>
<stop offset="0.5" stop-color="#00CEE6" stop-opacity="0.4"/>
<stop offset="1" stop-color="#0066FF"/>
</linearGradient>
<linearGradient id="paint16_linear_10_548" x1="239.205" y1="54.5665" x2="0.191753" y2="130.144" gradientUnits="userSpaceOnUse">
<stop stop-color="#DCE0E2"/>
<stop offset="1" stop-color="#D8DCDF"/>
</linearGradient>
<linearGradient id="paint17_linear_10_548" x1="13.2242" y1="126.245" x2="225.422" y2="59.6183" gradientUnits="userSpaceOnUse">
<stop stop-color="#C0C7CA"/>
<stop offset="0.21" stop-color="#BEC5C8"/>
<stop offset="0.3" stop-color="#B7BEC1"/>
<stop offset="0.34" stop-color="#AFB6BA"/>
<stop offset="1" stop-color="#D8DCDF"/>
</linearGradient>
<linearGradient id="paint18_linear_10_548" x1="121.794" y1="25.884" x2="121.794" y2="131.425" gradientUnits="userSpaceOnUse">
<stop stop-color="#0066FF"/>
<stop offset="1" stop-color="#003399"/>
</linearGradient>
<linearGradient id="paint19_linear_10_548" x1="235.728" y1="43.5478" x2="-3.30429" y2="119.125" gradientUnits="userSpaceOnUse">
<stop stop-color="#C0C7CA"/>
<stop offset="1" stop-color="#D8DCDF"/>
</linearGradient>
<linearGradient id="paint20_linear_10_548" x1="246.106" y1="76.3847" x2="7.09238" y2="151.962" gradientUnits="userSpaceOnUse">
<stop stop-color="#C0C7CA"/>
<stop offset="1" stop-color="#D8DCDF"/>
</linearGradient>
<linearGradient id="paint21_linear_10_548" x1="162.164" y1="111.218" x2="114.994" y2="57.0927" gradientUnits="userSpaceOnUse">
<stop stop-color="#BAC7D4"/>
<stop offset="0.26" stop-color="#6D99B7"/>
<stop offset="0.36" stop-color="#6286A6"/>
<stop offset="0.45" stop-color="#95AECE"/>
<stop offset="0.5" stop-color="#CBD9E3"/>
<stop offset="0.51" stop-color="#CAD8E3"/>
<stop offset="0.59" stop-color="#B6CAE0"/>
<stop offset="0.83" stop-color="#CAD7EC"/>
<stop offset="1" stop-color="#D1DCF1"/>
</linearGradient>
<linearGradient id="paint22_linear_10_548" x1="168.352" y1="232.699" x2="182.077" y2="207.78" gradientUnits="userSpaceOnUse">
<stop stop-color="#CC931F"/>
<stop offset="1" stop-color="#CC6900"/>
</linearGradient>
<linearGradient id="paint23_linear_10_548" x1="168.615" y1="232.211" x2="181.809" y2="208.261" gradientUnits="userSpaceOnUse">
<stop stop-color="#FFE53B"/>
<stop offset="1" stop-color="#FFA200"/>
</linearGradient>
<linearGradient id="paint24_linear_10_548" x1="174.363" y1="216.039" x2="177.835" y2="233.662" gradientUnits="userSpaceOnUse">
<stop stop-color="#FFF73B"/>
<stop offset="1" stop-color="#FFBA00"/>
</linearGradient>
<linearGradient id="paint25_linear_10_548" x1="89.3523" y1="203.699" x2="103.077" y2="178.78" gradientUnits="userSpaceOnUse">
<stop stop-color="#CC931F"/>
<stop offset="1" stop-color="#CC6900"/>
</linearGradient>
<linearGradient id="paint26_linear_10_548" x1="89.6146" y1="203.211" x2="102.809" y2="179.261" gradientUnits="userSpaceOnUse">
<stop stop-color="#FFE53B"/>
<stop offset="1" stop-color="#FFA200"/>
</linearGradient>
<linearGradient id="paint27_linear_10_548" x1="95.363" y1="187.039" x2="98.8348" y2="204.662" gradientUnits="userSpaceOnUse">
<stop stop-color="#FFF73B"/>
<stop offset="1" stop-color="#FFBA00"/>
</linearGradient>
<linearGradient id="paint28_linear_10_548" x1="123.352" y1="322.699" x2="137.077" y2="297.78" gradientUnits="userSpaceOnUse">
<stop stop-color="#CC931F"/>
<stop offset="1" stop-color="#CC6900"/>
</linearGradient>
<linearGradient id="paint29_linear_10_548" x1="123.615" y1="322.211" x2="136.809" y2="298.261" gradientUnits="userSpaceOnUse">
<stop stop-color="#FFE53B"/>
<stop offset="1" stop-color="#FFA200"/>
</linearGradient>
<linearGradient id="paint30_linear_10_548" x1="129.363" y1="306.039" x2="132.835" y2="323.662" gradientUnits="userSpaceOnUse">
<stop stop-color="#FFF73B"/>
<stop offset="1" stop-color="#FFBA00"/>
</linearGradient>
</defs>
</svg>
