<svg width="214" height="55" viewBox="0 0 214 55" fill="none" xmlns="http://www.w3.org/2000/svg">
<path d="M62.5474 16.4517H76.2601V20.2314H66.5452V25.2207H75.687V28.9724H66.5452V36.5952H62.5474V16.4517Z" fill="black"/>
<path d="M77.9478 29.4683C77.9478 25.1611 80.7993 22.1233 84.7021 22.1233C85.4703 22.0918 86.236 22.2312 86.9438 22.5316C87.6515 22.832 88.2838 23.2858 88.7948 23.8602V22.3413H92.6625V36.5954H88.7948V35.1081C88.283 35.6813 87.6505 36.134 86.9429 36.4338C86.2352 36.7335 85.47 36.8727 84.7021 36.8415C80.7993 36.8415 77.9478 33.7122 77.9478 29.4683ZM88.7948 29.4683C88.7948 27.3306 87.3884 25.7483 85.2788 25.7483C83.1691 25.7483 81.7135 27.3306 81.7135 29.4683C81.7135 31.6061 83.141 33.1848 85.2788 33.1848C87.4165 33.1848 88.7948 31.6061 88.7948 29.4683Z" fill="black"/>
<path d="M96.0731 22.3413H99.9408V23.7653C100.424 23.2449 101.009 22.8303 101.66 22.5477C102.311 22.2651 103.014 22.1206 103.724 22.1233C105.366 22.1233 107.103 22.6824 108.126 24.2927C109.336 22.6507 111.224 22.1233 112.806 22.1233C115.317 22.1233 118.136 23.4243 118.136 27.8862V36.5955H114.272V28.4136C114.272 25.9523 112.514 25.5023 111.607 25.5023C110.7 25.5023 109.033 25.9347 109.033 28.4136V36.5955H105.166V28.4136C105.166 25.9523 103.429 25.5023 102.532 25.5023C101.636 25.5023 99.9584 25.9347 99.9584 28.4136V36.5955H96.0907L96.0731 22.3413Z" fill="black"/>
<path d="M120.925 32.0701L124.149 29.7776C124.736 30.9239 127.155 32.9421 130.035 32.9421C132.496 32.9421 133.164 32.0736 133.164 30.8043C133.164 29.1307 130 28.5716 128.456 28.0442C126.913 27.5168 121.73 26.5288 121.73 22.1266C121.73 17.8195 125.513 16.0825 129.602 16.0825C133.47 16.0825 136.666 18.2519 137.443 20.4214L134.279 22.4677C133.751 21.4762 131.673 20.0803 129.103 20.0803C127.275 20.0803 126.315 20.7835 126.315 21.9086C126.315 23.5823 129.289 24.0781 130.868 24.6055C132.387 25.1329 137.626 26.4022 137.626 30.618C137.626 34.8337 134.433 36.9715 129.599 36.9715C124.954 36.968 121.916 34.4891 120.925 32.0701Z" fill="#0052FF"/>
<path d="M140.414 16.4517H144.282V23.7053C144.801 23.1777 145.425 22.7645 146.114 22.492C146.802 22.2196 147.54 22.0939 148.28 22.1231C150.85 22.1231 153.828 23.5295 153.828 27.8859V36.5952H149.96V28.4801C149.96 25.9697 148.202 25.379 147.109 25.379C146.015 25.379 144.296 25.9697 144.296 28.4801V36.5987H140.428L140.414 16.4517Z" fill="#0052FF"/>
<path d="M156.715 29.4684C156.715 25.1612 159.566 22.1233 163.469 22.1233C164.237 22.0925 165.003 22.2324 165.71 22.5327C166.418 22.833 167.05 23.2864 167.562 23.8602V22.3413H171.429V36.5955H167.562V35.1082C167.049 35.6808 166.417 36.1331 165.709 36.4328C165.002 36.7324 164.237 36.872 163.469 36.8416C159.566 36.8416 156.715 33.7123 156.715 29.4684ZM167.562 29.4684C167.562 27.3306 166.155 25.7484 164.028 25.7484C161.901 25.7484 160.463 27.3306 160.463 29.4684C160.463 31.6061 161.89 33.1849 164.028 33.1849C166.166 33.1849 167.562 31.6061 167.562 29.4684Z" fill="#0052FF"/>
<path d="M174.84 22.3412H178.708V24.9114C179.234 24.0535 179.972 23.346 180.852 22.8575C181.732 22.369 182.723 22.116 183.729 22.1232V25.7483C182.322 25.7799 178.708 25.9979 178.708 30.0555V36.5953H174.84V22.3412Z" fill="#0052FF"/>
<path d="M185.068 29.4682C185.068 25.2208 187.857 22.0598 192.164 22.0598C196.408 22.0598 199.013 25.2243 199.013 29.4682V30.523H188.785C189.158 32.4463 190.543 33.5925 192.318 33.5925C194.21 33.5925 195.202 32.7241 195.697 32.0736L198.331 33.9969C197.09 35.7936 194.92 36.9082 192.318 36.9082C187.948 36.9187 185.068 33.7121 185.068 29.4682ZM195.385 28.0617C195.033 26.3881 193.978 25.1188 192.164 25.1188C190.406 25.1188 189.221 26.265 188.848 28.0617H195.385Z" fill="#0052FF"/>
<path d="M200.747 33.589L203.38 31.831C203.732 32.6362 205.395 33.9406 207.192 33.9406C208.524 33.9406 209.238 33.5363 209.238 32.608C209.238 31.4618 207.41 31.1524 206.291 30.7797C205.173 30.407 201.369 29.5104 201.369 26.3775C201.369 23.3432 204.034 22.0422 207.104 22.0422C210.173 22.0422 212.276 23.4979 212.99 25.0485L210.479 26.6588C210.047 25.9767 208.496 24.9852 206.963 24.9852C205.694 24.9852 205.135 25.481 205.135 26.1947C205.135 27.341 206.893 27.6504 208.018 28.0231C209.143 28.3958 213.007 29.3838 213.007 32.4533C213.007 35.4596 210.774 37.0242 207.118 37.0242C203.626 37.0277 201.471 35.3259 200.747 33.589Z" fill="#0052FF"/>
<path d="M18.4312 1.14615C14.2025 2.39265 10.3683 4.71206 7.30125 7.87892C4.23421 11.0458 2.03873 14.9523 0.92825 19.2188C-1.38532 28.0546 0.787608 36.4475 5.65033 42.6041C5.78126 42.7678 5.87566 42.9576 5.9272 43.1607C5.97875 43.3639 5.98625 43.5757 5.9492 43.782L4.27203 52.6601C4.20452 53.0205 4.2386 53.3925 4.37044 53.7346C4.50229 54.0767 4.72672 54.3754 5.01861 54.5972C5.31051 54.819 5.65836 54.9553 6.02328 54.9907C6.38819 55.0262 6.75576 54.9594 7.08489 54.7979L15.3125 50.772C15.498 50.6822 15.7004 50.6327 15.9065 50.6266C16.1125 50.6206 16.3175 50.6581 16.508 50.7368C21.9874 52.9201 28.0352 53.2292 33.7086 51.6158C37.9223 50.4639 41.7705 48.2511 44.8858 45.1888C48.0011 42.1265 50.2794 38.3168 51.5034 34.1234C57.428 13.5684 38.9862 -4.8382 18.4312 1.14615Z" fill="url(#paint0_linear_35_3465)"/>
<path d="M36.5882 18.9867L40.9833 14.5916C41.1639 14.4107 41.2869 14.1803 41.3367 13.9295C41.3865 13.6787 41.3609 13.4187 41.2631 13.1825C41.1653 12.9463 40.9997 12.7443 40.7872 12.6021C40.5747 12.4599 40.3248 12.3838 40.0691 12.3835H15.1191C14.7019 12.3847 14.2914 12.4882 13.9236 12.685C13.5558 12.8818 13.2419 13.1658 13.0094 13.5122C12.737 13.906 12.5833 14.3697 12.5664 14.8483V39.9003C12.5667 40.156 12.6428 40.4059 12.785 40.6184C12.9271 40.8309 13.1291 40.9965 13.3654 41.0943C13.6016 41.1921 13.8615 41.2177 14.1123 41.1679C14.3631 41.1181 14.5935 40.9951 14.7745 40.8145L19.1907 36.3913C19.4306 36.1488 19.5657 35.8217 19.5669 35.4806V30.7691C19.5688 30.382 19.7236 30.0114 19.9976 29.7381C20.2716 29.4647 20.6426 29.3108 21.0296 29.3099H25.7341C25.9037 29.3106 26.0719 29.2776 26.2287 29.2131C26.3856 29.1485 26.5282 29.0536 26.6483 28.9337L31.082 24.4999C31.2627 24.319 31.3857 24.0886 31.4355 23.8378C31.4853 23.587 31.4597 23.327 31.3618 23.0908C31.264 22.8545 31.0984 22.6526 30.8859 22.5104C30.6734 22.3682 30.4235 22.2921 30.1679 22.2918H21.0261C20.6391 22.2918 20.2679 22.1381 19.9943 21.8644C19.7206 21.5908 19.5669 21.2197 19.5669 20.8327C19.5669 20.4457 19.7206 20.0745 19.9943 19.8009C20.2679 19.5272 20.6391 19.3735 21.0261 19.3735H35.6635C35.8356 19.3736 36.0059 19.3394 36.1647 19.273C36.3235 19.2066 36.4674 19.1093 36.5882 18.9867Z" fill="white"/>
<defs>
<linearGradient id="paint0_linear_35_3465" x1="55.568" y1="55.8984" x2="7.48572" y2="16.8665" gradientUnits="userSpaceOnUse">
<stop stop-color="#003399"/>
<stop offset="1" stop-color="#0052FF"/>
</linearGradient>
</defs>
</svg>
